demos/ice40/demo1/demo1.vcd
$version la2vcd 0.1 $end
$date Mon Aug 27 00:35:16 2018
 $end
$timescale 41667ps $end
$scope module CAPTURE $end
$var wire 1 ! clk $end
$var wire 16 # capdata $end
$var wire 1 ^ triggered $end
$var wire 8 & capbyte0 $end
$var wire 8 ' capbyte1 $end
$upscope $end
$enddefinitions $end
$dumpvars
0!
0^
bx #
bx &
bx '
 $end
#0
1!
b1010101001010101 # 
b01010101 & 
b10101010 ' 
#1
0!
#2
1!
b1010101001010110 # 
b01010110 & 
b10101010 ' 
1^
#3
0!
#4
1!
b0101010101010110 # 
b01010110 & 
b01010101 ' 
#5
0!
#6
1!
b1010101001010111 # 
b01010111 & 
b10101010 ' 
#7
0!
#8
1!
b0101010101010111 # 
b01010111 & 
b01010101 ' 
#9
0!
#10
1!
b1010101001011000 # 
b01011000 & 
b10101010 ' 
#11
0!
#12
1!
#13
0!
#14
1!
b1010101001011001 # 
b01011001 & 
b10101010 ' 
#15
0!
#16
1!
#17
0!
#18
1!
b1010101001011010 # 
b01011010 & 
b10101010 ' 
#19
0!
#20
1!
b0101010101011010 # 
b01011010 & 
b01010101 ' 
#21
0!
#22
1!
b1010101001011011 # 
b01011011 & 
b10101010 ' 
#23
0!
#24
1!
b0101010101011011 # 
b01011011 & 
b01010101 ' 
#25
0!
#26
1!
b1010101001011100 # 
b01011100 & 
b10101010 ' 
#27
0!
#28
1!
#29
0!
#30
1!
b1010101001011101 # 
b01011101 & 
b10101010 ' 
#31
0!
#32
1!
#33
0!
#34
1!
b1010101001011110 # 
b01011110 & 
b10101010 ' 
#35
0!
#36
1!
b0101010101011110 # 
b01011110 & 
b01010101 ' 
#37
0!
#38
1!
b1010101001011111 # 
b01011111 & 
b10101010 ' 
#39
0!
#40
1!
b0101010101011111 # 
b01011111 & 
b01010101 ' 
#41
0!
#42
1!
b1010101001100000 # 
b01100000 & 
b10101010 ' 
#43
0!
#44
1!
#45
0!
#46
1!
b1010101001100001 # 
b01100001 & 
b10101010 ' 
#47
0!
#48
1!
#49
0!
#50
1!
b1010101001100010 # 
b01100010 & 
b10101010 ' 
#51
0!
#52
1!
b0101010101100010 # 
b01100010 & 
b01010101 ' 
#53
0!
#54
1!
b1010101001100011 # 
b01100011 & 
b10101010 ' 
#55
0!
#56
1!
b0101010101100011 # 
b01100011 & 
b01010101 ' 
#57
0!
#58
1!
b1010101001100100 # 
b01100100 & 
b10101010 ' 
#59
0!
#60
1!
#61
0!
#62
1!
b1010101001100101 # 
b01100101 & 
b10101010 ' 
#63
0!
#64
1!
#65
0!
#66
1!
b1010101001100110 # 
b01100110 & 
b10101010 ' 
#67
0!
#68
1!
b0101010101100110 # 
b01100110 & 
b01010101 ' 
#69
0!
#70
1!
b1010101001100111 # 
b01100111 & 
b10101010 ' 
#71
0!
#72
1!
b0101010101100111 # 
b01100111 & 
b01010101 ' 
#73
0!
#74
1!
b1010101001101000 # 
b01101000 & 
b10101010 ' 
#75
0!
#76
1!
#77
0!
#78
1!
b1010101001101001 # 
b01101001 & 
b10101010 ' 
#79
0!
#80
1!
#81
0!
#82
1!
b1010101001101010 # 
b01101010 & 
b10101010 ' 
#83
0!
#84
1!
b0101010101101010 # 
b01101010 & 
b01010101 ' 
#85
0!
#86
1!
b1010101001101011 # 
b01101011 & 
b10101010 ' 
#87
0!
#88
1!
b0101010101101011 # 
b01101011 & 
b01010101 ' 
#89
0!
#90
1!
b1010101001101100 # 
b01101100 & 
b10101010 ' 
#91
0!
#92
1!
#93
0!
#94
1!
b1010101001101101 # 
b01101101 & 
b10101010 ' 
#95
0!
#96
1!
#97
0!
#98
1!
b1010101001101110 # 
b01101110 & 
b10101010 ' 
#99
0!
#100
1!
b0101010101101110 # 
b01101110 & 
b01010101 ' 
#101
0!
#102
1!
b1010101001101111 # 
b01101111 & 
b10101010 ' 
#103
0!
#104
1!
b0101010101101111 # 
b01101111 & 
b01010101 ' 
#105
0!
#106
1!
b1010101001110000 # 
b01110000 & 
b10101010 ' 
#107
0!
#108
1!
#109
0!
#110
1!
b1010101001110001 # 
b01110001 & 
b10101010 ' 
#111
0!
#112
1!
#113
0!
#114
1!
b1010101001110010 # 
b01110010 & 
b10101010 ' 
#115
0!
#116
1!
b0101010101110010 # 
b01110010 & 
b01010101 ' 
#117
0!
#118
1!
b1010101001110011 # 
b01110011 & 
b10101010 ' 
#119
0!
#120
1!
b0101010101110011 # 
b01110011 & 
b01010101 ' 
#121
0!
#122
1!
b1010101001110100 # 
b01110100 & 
b10101010 ' 
#123
0!
#124
1!
#125
0!
#126
1!
b1010101001110101 # 
b01110101 & 
b10101010 ' 
#127
0!
#128
1!
#129
0!
#130
1!
b1010101001110110 # 
b01110110 & 
b10101010 ' 
#131
0!
#132
1!
b0101010101110110 # 
b01110110 & 
b01010101 ' 
#133
0!
#134
1!
b1010101001110111 # 
b01110111 & 
b10101010 ' 
#135
0!
#136
1!
b0101010101110111 # 
b01110111 & 
b01010101 ' 
#137
0!
#138
1!
b1010101001111000 # 
b01111000 & 
b10101010 ' 
#139
0!
#140
1!
#141
0!
#142
1!
b1010101001111001 # 
b01111001 & 
b10101010 ' 
#143
0!
#144
1!
#145
0!
#146
1!
b1010101001111010 # 
b01111010 & 
b10101010 ' 
#147
0!
#148
1!
b0101010101111010 # 
b01111010 & 
b01010101 ' 
#149
0!
#150
1!
b1010101001111011 # 
b01111011 & 
b10101010 ' 
#151
0!
#152
1!
b0101010101111011 # 
b01111011 & 
b01010101 ' 
#153
0!
#154
1!
b1010101001111100 # 
b01111100 & 
b10101010 ' 
#155
0!
#156
1!
#157
0!
#158
1!
b1010101001111101 # 
b01111101 & 
b10101010 ' 
#159
0!
#160
1!
#161
0!
#162
1!
b1010101001111110 # 
b01111110 & 
b10101010 ' 
#163
0!
#164
1!
b0101010101111110 # 
b01111110 & 
b01010101 ' 
#165
0!
#166
1!
b1010101001111111 # 
b01111111 & 
b10101010 ' 
#167
0!
#168
1!
b0101010101111111 # 
b01111111 & 
b01010101 ' 
#169
0!
#170
1!
b1010101010000000 # 
b10000000 & 
b10101010 ' 
#171
0!
#172
1!
#173
0!
#174
1!
b1010101010000001 # 
b10000001 & 
b10101010 ' 
#175
0!
#176
1!
#177
0!
#178
1!
b1010101010000010 # 
b10000010 & 
b10101010 ' 
#179
0!
#180
1!
b0101010110000010 # 
b10000010 & 
b01010101 ' 
#181
0!
#182
1!
b1010101010000011 # 
b10000011 & 
b10101010 ' 
#183
0!
#184
1!
b0101010110000011 # 
b10000011 & 
b01010101 ' 
#185
0!
#186
1!
b1010101010000100 # 
b10000100 & 
b10101010 ' 
#187
0!
#188
1!
#189
0!
#190
1!
b1010101010000101 # 
b10000101 & 
b10101010 ' 
#191
0!
#192
1!
#193
0!
#194
1!
b1010101010000110 # 
b10000110 & 
b10101010 ' 
#195
0!
#196
1!
b0101010110000110 # 
b10000110 & 
b01010101 ' 
#197
0!
#198
1!
b1010101010000111 # 
b10000111 & 
b10101010 ' 
#199
0!
#200
1!
b0101010110000111 # 
b10000111 & 
b01010101 ' 
#201
0!
#202
1!
b1010101010001000 # 
b10001000 & 
b10101010 ' 
#203
0!
#204
1!
#205
0!
#206
1!
b1010101010001001 # 
b10001001 & 
b10101010 ' 
#207
0!
#208
1!
#209
0!
#210
1!
b1010101010001010 # 
b10001010 & 
b10101010 ' 
#211
0!
#212
1!
b0101010110001010 # 
b10001010 & 
b01010101 ' 
#213
0!
#214
1!
b1010101010001011 # 
b10001011 & 
b10101010 ' 
#215
0!
#216
1!
b0101010110001011 # 
b10001011 & 
b01010101 ' 
#217
0!
#218
1!
b1010101010001100 # 
b10001100 & 
b10101010 ' 
#219
0!
#220
1!
#221
0!
#222
1!
b1010101010001101 # 
b10001101 & 
b10101010 ' 
#223
0!
#224
1!
#225
0!
#226
1!
b1010101010001110 # 
b10001110 & 
b10101010 ' 
#227
0!
#228
1!
b0101010110001110 # 
b10001110 & 
b01010101 ' 
#229
0!
#230
1!
b1010101010001111 # 
b10001111 & 
b10101010 ' 
#231
0!
#232
1!
b0101010110001111 # 
b10001111 & 
b01010101 ' 
#233
0!
#234
1!
b1010101010010000 # 
b10010000 & 
b10101010 ' 
#235
0!
#236
1!
#237
0!
#238
1!
b1010101010010001 # 
b10010001 & 
b10101010 ' 
#239
0!
#240
1!
#241
0!
#242
1!
b1010101010010010 # 
b10010010 & 
b10101010 ' 
#243
0!
#244
1!
b0101010110010010 # 
b10010010 & 
b01010101 ' 
#245
0!
#246
1!
b1010101010010011 # 
b10010011 & 
b10101010 ' 
#247
0!
#248
1!
b0101010110010011 # 
b10010011 & 
b01010101 ' 
#249
0!
#250
1!
b1010101010010100 # 
b10010100 & 
b10101010 ' 
#251
0!
#252
1!
#253
0!
#254
1!
b1010101010010101 # 
b10010101 & 
b10101010 ' 
#255
0!
#256
1!
#257
0!
#258
1!
b1010101010010110 # 
b10010110 & 
b10101010 ' 
#259
0!
#260
1!
b0101010110010110 # 
b10010110 & 
b01010101 ' 
#261
0!
#262
1!
b1010101010010111 # 
b10010111 & 
b10101010 ' 
#263
0!
#264
1!
b0101010110010111 # 
b10010111 & 
b01010101 ' 
#265
0!
#266
1!
b1010101010011000 # 
b10011000 & 
b10101010 ' 
#267
0!
#268
1!
#269
0!
#270
1!
b1010101010011001 # 
b10011001 & 
b10101010 ' 
#271
0!
#272
1!
#273
0!
#274
1!
b1010101010011010 # 
b10011010 & 
b10101010 ' 
#275
0!
#276
1!
b0101010110011010 # 
b10011010 & 
b01010101 ' 
#277
0!
#278
1!
b1010101010011011 # 
b10011011 & 
b10101010 ' 
#279
0!
#280
1!
b0101010110011011 # 
b10011011 & 
b01010101 ' 
#281
0!
#282
1!
b1010101010011100 # 
b10011100 & 
b10101010 ' 
#283
0!
#284
1!
#285
0!
#286
1!
b1010101010011101 # 
b10011101 & 
b10101010 ' 
#287
0!
#288
1!
#289
0!
#290
1!
b1010101010011110 # 
b10011110 & 
b10101010 ' 
#291
0!
#292
1!
b0101010110011110 # 
b10011110 & 
b01010101 ' 
#293
0!
#294
1!
b1010101010011111 # 
b10011111 & 
b10101010 ' 
#295
0!
#296
1!
b0101010110011111 # 
b10011111 & 
b01010101 ' 
#297
0!
#298
1!
b1010101010100000 # 
b10100000 & 
b10101010 ' 
#299
0!
#300
1!
#301
0!
#302
1!
b1010101010100001 # 
b10100001 & 
b10101010 ' 
#303
0!
#304
1!
#305
0!
#306
1!
b1010101010100010 # 
b10100010 & 
b10101010 ' 
#307
0!
#308
1!
b0101010110100010 # 
b10100010 & 
b01010101 ' 
#309
0!
#310
1!
b1010101010100011 # 
b10100011 & 
b10101010 ' 
#311
0!
#312
1!
b0101010110100011 # 
b10100011 & 
b01010101 ' 
#313
0!
#314
1!
b1010101010100100 # 
b10100100 & 
b10101010 ' 
#315
0!
#316
1!
#317
0!
#318
1!
b1010101010100101 # 
b10100101 & 
b10101010 ' 
#319
0!
#320
1!
#321
0!
#322
1!
b1010101010100110 # 
b10100110 & 
b10101010 ' 
#323
0!
#324
1!
b0101010110100110 # 
b10100110 & 
b01010101 ' 
#325
0!
#326
1!
b1010101010100111 # 
b10100111 & 
b10101010 ' 
#327
0!
#328
1!
b0101010110100111 # 
b10100111 & 
b01010101 ' 
#329
0!
#330
1!
b1010101010101000 # 
b10101000 & 
b10101010 ' 
#331
0!
#332
1!
#333
0!
#334
1!
b1010101010101001 # 
b10101001 & 
b10101010 ' 
