demos/ice40/demo1/demo1.vcd
$version la2vcd 0.1 $end
$date Wed Aug 29 13:34:29 2018
 $end
$timescale 41667ps $end
$scope module CAPTURE $end
$var wire 1 ! clk $end
$var wire 16 # capdata $end
$var wire 1 ^ triggered $end
$var wire 8 & capbyte0 $end
$var wire 8 ' capbyte1 $end
$upscope $end
$enddefinitions $end
$dumpvars
0!
0^
bx #
bx &
bx '
 $end
#0
1!
b1010101000100111 # 
b00100111 & 
b10101010 ' 
#1
0!
#2
1!
b0101010100100111 # 
b00100111 & 
b01010101 ' 
1^
#3
0!
#4
1!
b1010101000101000 # 
b00101000 & 
b10101010 ' 
#5
0!
#6
1!
#7
0!
#8
1!
b1010101000101001 # 
b00101001 & 
b10101010 ' 
#9
0!
#10
1!
#11
0!
#12
1!
b1010101000101010 # 
b00101010 & 
b10101010 ' 
#13
0!
#14
1!
b0101010100101010 # 
b00101010 & 
b01010101 ' 
#15
0!
#16
1!
b1010101000101011 # 
b00101011 & 
b10101010 ' 
#17
0!
#18
1!
b0101010100101011 # 
b00101011 & 
b01010101 ' 
#19
0!
#20
1!
b1010101000101100 # 
b00101100 & 
b10101010 ' 
#21
0!
#22
1!
#23
0!
#24
1!
b1010101000101101 # 
b00101101 & 
b10101010 ' 
#25
0!
#26
1!
#27
0!
#28
1!
b1010101000101110 # 
b00101110 & 
b10101010 ' 
#29
0!
#30
1!
b0101010100101110 # 
b00101110 & 
b01010101 ' 
#31
0!
#32
1!
b1010101000101111 # 
b00101111 & 
b10101010 ' 
#33
0!
#34
1!
b0101010100101111 # 
b00101111 & 
b01010101 ' 
#35
0!
#36
1!
b1010101000110000 # 
b00110000 & 
b10101010 ' 
#37
0!
#38
1!
#39
0!
#40
1!
b1010101000110001 # 
b00110001 & 
b10101010 ' 
#41
0!
#42
1!
#43
0!
#44
1!
b1010101000110010 # 
b00110010 & 
b10101010 ' 
#45
0!
#46
1!
b0101010100110010 # 
b00110010 & 
b01010101 ' 
#47
0!
#48
1!
b1010101000110011 # 
b00110011 & 
b10101010 ' 
#49
0!
#50
1!
b0101010100110011 # 
b00110011 & 
b01010101 ' 
#51
0!
#52
1!
b1010101000110100 # 
b00110100 & 
b10101010 ' 
#53
0!
#54
1!
#55
0!
#56
1!
b1010101000110101 # 
b00110101 & 
b10101010 ' 
#57
0!
#58
1!
#59
0!
#60
1!
b1010101000110110 # 
b00110110 & 
b10101010 ' 
#61
0!
#62
1!
b0101010100110110 # 
b00110110 & 
b01010101 ' 
#63
0!
#64
1!
b1010101000110111 # 
b00110111 & 
b10101010 ' 
#65
0!
#66
1!
b0101010100110111 # 
b00110111 & 
b01010101 ' 
#67
0!
#68
1!
b1010101000111000 # 
b00111000 & 
b10101010 ' 
#69
0!
#70
1!
#71
0!
#72
1!
b1010101000111001 # 
b00111001 & 
b10101010 ' 
#73
0!
#74
1!
#75
0!
#76
1!
b1010101000111010 # 
b00111010 & 
b10101010 ' 
#77
0!
#78
1!
b0101010100111010 # 
b00111010 & 
b01010101 ' 
#79
0!
#80
1!
b1010101000111011 # 
b00111011 & 
b10101010 ' 
#81
0!
#82
1!
b0101010100111011 # 
b00111011 & 
b01010101 ' 
#83
0!
#84
1!
b1010101000111100 # 
b00111100 & 
b10101010 ' 
#85
0!
#86
1!
#87
0!
#88
1!
b1010101000111101 # 
b00111101 & 
b10101010 ' 
#89
0!
#90
1!
#91
0!
#92
1!
b1010101000111110 # 
b00111110 & 
b10101010 ' 
#93
0!
#94
1!
b0101010100111110 # 
b00111110 & 
b01010101 ' 
#95
0!
#96
1!
b1010101000111111 # 
b00111111 & 
b10101010 ' 
#97
0!
#98
1!
b0101010100111111 # 
b00111111 & 
b01010101 ' 
#99
0!
#100
1!
b1010101001000000 # 
b01000000 & 
b10101010 ' 
#101
0!
#102
1!
#103
0!
#104
1!
b1010101001000001 # 
b01000001 & 
b10101010 ' 
#105
0!
#106
1!
#107
0!
#108
1!
b1010101001000010 # 
b01000010 & 
b10101010 ' 
#109
0!
#110
1!
b0101010101000010 # 
b01000010 & 
b01010101 ' 
#111
0!
#112
1!
b1010101001000011 # 
b01000011 & 
b10101010 ' 
#113
0!
#114
1!
b0101010101000011 # 
b01000011 & 
b01010101 ' 
#115
0!
#116
1!
b1010101001000100 # 
b01000100 & 
b10101010 ' 
#117
0!
#118
1!
#119
0!
#120
1!
b1010101001000101 # 
b01000101 & 
b10101010 ' 
#121
0!
#122
1!
#123
0!
#124
1!
b1010101001000110 # 
b01000110 & 
b10101010 ' 
#125
0!
#126
1!
b0101010101000110 # 
b01000110 & 
b01010101 ' 
#127
0!
#128
1!
b1010101001000111 # 
b01000111 & 
b10101010 ' 
#129
0!
#130
1!
b0101010101000111 # 
b01000111 & 
b01010101 ' 
#131
0!
#132
1!
b1010101001001000 # 
b01001000 & 
b10101010 ' 
#133
0!
#134
1!
#135
0!
#136
1!
b1010101001001001 # 
b01001001 & 
b10101010 ' 
#137
0!
#138
1!
#139
0!
#140
1!
b1010101001001010 # 
b01001010 & 
b10101010 ' 
#141
0!
#142
1!
b0101010101001010 # 
b01001010 & 
b01010101 ' 
#143
0!
#144
1!
b1010101001001011 # 
b01001011 & 
b10101010 ' 
#145
0!
#146
1!
b0101010101001011 # 
b01001011 & 
b01010101 ' 
#147
0!
#148
1!
b1010101001001100 # 
b01001100 & 
b10101010 ' 
#149
0!
#150
1!
#151
0!
#152
1!
b1010101001001101 # 
b01001101 & 
b10101010 ' 
#153
0!
#154
1!
#155
0!
#156
1!
b1010101001001110 # 
b01001110 & 
b10101010 ' 
#157
0!
#158
1!
b0101010101001110 # 
b01001110 & 
b01010101 ' 
#159
0!
#160
1!
b1010101001001111 # 
b01001111 & 
b10101010 ' 
#161
0!
#162
1!
b0101010101001111 # 
b01001111 & 
b01010101 ' 
#163
0!
#164
1!
b1010101001010000 # 
b01010000 & 
b10101010 ' 
#165
0!
#166
1!
#167
0!
#168
1!
b1010101001010001 # 
b01010001 & 
b10101010 ' 
#169
0!
#170
1!
#171
0!
#172
1!
b1010101001010010 # 
b01010010 & 
b10101010 ' 
#173
0!
#174
1!
b0101010101010010 # 
b01010010 & 
b01010101 ' 
#175
0!
#176
1!
b1010101001010011 # 
b01010011 & 
b10101010 ' 
#177
0!
#178
1!
b0101010101010011 # 
b01010011 & 
b01010101 ' 
#179
0!
#180
1!
b1010101001010100 # 
b01010100 & 
b10101010 ' 
#181
0!
#182
1!
#183
0!
#184
1!
b1010101001010101 # 
b01010101 & 
b10101010 ' 
#185
0!
#186
1!
#187
0!
#188
1!
b1010101001010110 # 
b01010110 & 
b10101010 ' 
#189
0!
#190
1!
b0101010101010110 # 
b01010110 & 
b01010101 ' 
#191
0!
#192
1!
b1010101001010111 # 
b01010111 & 
b10101010 ' 
#193
0!
#194
1!
b0101010101010111 # 
b01010111 & 
b01010101 ' 
#195
0!
#196
1!
b1010101001011000 # 
b01011000 & 
b10101010 ' 
#197
0!
#198
1!
#199
0!
#200
1!
b1010101001011001 # 
b01011001 & 
b10101010 ' 
#201
0!
#202
1!
#203
0!
#204
1!
b1010101001011010 # 
b01011010 & 
b10101010 ' 
#205
0!
#206
1!
b0101010101011010 # 
b01011010 & 
b01010101 ' 
#207
0!
#208
1!
b1010101001011011 # 
b01011011 & 
b10101010 ' 
#209
0!
#210
1!
b0101010101011011 # 
b01011011 & 
b01010101 ' 
#211
0!
#212
1!
b1010101001011100 # 
b01011100 & 
b10101010 ' 
#213
0!
#214
1!
#215
0!
#216
1!
b1010101001011101 # 
b01011101 & 
b10101010 ' 
#217
0!
#218
1!
#219
0!
#220
1!
b1010101001011110 # 
b01011110 & 
b10101010 ' 
#221
0!
#222
1!
b0101010101011110 # 
b01011110 & 
b01010101 ' 
#223
0!
#224
1!
b1010101001011111 # 
b01011111 & 
b10101010 ' 
#225
0!
#226
1!
b0101010101011111 # 
b01011111 & 
b01010101 ' 
#227
0!
#228
1!
b1010101001100000 # 
b01100000 & 
b10101010 ' 
#229
0!
#230
1!
#231
0!
#232
1!
b1010101001100001 # 
b01100001 & 
b10101010 ' 
#233
0!
#234
1!
#235
0!
#236
1!
b1010101001100010 # 
b01100010 & 
b10101010 ' 
#237
0!
#238
1!
b0101010101100010 # 
b01100010 & 
b01010101 ' 
#239
0!
#240
1!
b1010101001100011 # 
b01100011 & 
b10101010 ' 
#241
0!
#242
1!
b0101010101100011 # 
b01100011 & 
b01010101 ' 
#243
0!
#244
1!
b1010101001100100 # 
b01100100 & 
b10101010 ' 
#245
0!
#246
1!
#247
0!
#248
1!
b1010101001100101 # 
b01100101 & 
b10101010 ' 
#249
0!
#250
1!
#251
0!
#252
1!
b1010101001100110 # 
b01100110 & 
b10101010 ' 
#253
0!
#254
1!
b0101010101100110 # 
b01100110 & 
b01010101 ' 
#255
0!
#256
1!
b1010101001100111 # 
b01100111 & 
b10101010 ' 
#257
0!
#258
1!
b0101010101100111 # 
b01100111 & 
b01010101 ' 
#259
0!
#260
1!
b1010101001101000 # 
b01101000 & 
b10101010 ' 
#261
0!
#262
1!
#263
0!
#264
1!
b1010101001101001 # 
b01101001 & 
b10101010 ' 
#265
0!
#266
1!
#267
0!
#268
1!
b1010101001101010 # 
b01101010 & 
b10101010 ' 
#269
0!
#270
1!
b0101010101101010 # 
b01101010 & 
b01010101 ' 
#271
0!
#272
1!
b1010101001101011 # 
b01101011 & 
b10101010 ' 
#273
0!
#274
1!
b0101010101101011 # 
b01101011 & 
b01010101 ' 
#275
0!
#276
1!
b1010101001101100 # 
b01101100 & 
b10101010 ' 
#277
0!
#278
1!
#279
0!
#280
1!
b1010101001101101 # 
b01101101 & 
b10101010 ' 
#281
0!
#282
1!
#283
0!
#284
1!
b1010101001101110 # 
b01101110 & 
b10101010 ' 
#285
0!
#286
1!
b0101010101101110 # 
b01101110 & 
b01010101 ' 
#287
0!
#288
1!
b1010101001101111 # 
b01101111 & 
b10101010 ' 
#289
0!
#290
1!
b0101010101101111 # 
b01101111 & 
b01010101 ' 
#291
0!
#292
1!
b1010101001110000 # 
b01110000 & 
b10101010 ' 
#293
0!
#294
1!
#295
0!
#296
1!
b1010101001110001 # 
b01110001 & 
b10101010 ' 
#297
0!
#298
1!
#299
0!
#300
1!
b1010101001110010 # 
b01110010 & 
b10101010 ' 
#301
0!
#302
1!
b0101010101110010 # 
b01110010 & 
b01010101 ' 
#303
0!
#304
1!
b1010101001110011 # 
b01110011 & 
b10101010 ' 
#305
0!
#306
1!
b0101010101110011 # 
b01110011 & 
b01010101 ' 
#307
0!
#308
1!
b1010101001110100 # 
b01110100 & 
b10101010 ' 
#309
0!
#310
1!
#311
0!
#312
1!
b1010101001110101 # 
b01110101 & 
b10101010 ' 
#313
0!
#314
1!
#315
0!
#316
1!
b1010101001110110 # 
b01110110 & 
b10101010 ' 
#317
0!
#318
1!
b0101010101110110 # 
b01110110 & 
b01010101 ' 
#319
0!
#320
1!
b1010101001110111 # 
b01110111 & 
b10101010 ' 
#321
0!
#322
1!
b0101010101110111 # 
b01110111 & 
b01010101 ' 
#323
0!
#324
1!
b1010101001111000 # 
b01111000 & 
b10101010 ' 
#325
0!
#326
1!
#327
0!
#328
1!
b1010101001111001 # 
b01111001 & 
b10101010 ' 
#329
0!
#330
1!
#331
0!
#332
1!
b1010101001111010 # 
b01111010 & 
b10101010 ' 
#333
0!
#334
1!
b0101010101111010 # 
b01111010 & 
b01010101 ' 
#335
0!
#336
1!
b1010101001111011 # 
b01111011 & 
b10101010 ' 
