demos/ice40/demo2/demo2.vcd
$version la2vcd 0.1 $end
$date Mon Aug 27 00:30:17 2018
 $end
$timescale 10417ps $end
$scope module CAPTURE $end
$var wire 1 ! clk $end
$var wire 16 # capdata $end
$var wire 1 ^ triggered $end
$var wire 8 & capbyte0 $end
$var wire 8 ' capbyte1 $end
$upscope $end
$enddefinitions $end
$dumpvars
0!
0^
bx #
bx &
bx '
 $end
#0
1!
b1000000110100001 # 
b10100001 & 
b10000001 ' 
#1
0!
#2
1!
b1000000010100001 # 
b10100001 & 
b10000000 ' 
#3
0!
#4
1!
b0111111110100001 # 
b10100001 & 
b01111111 ' 
#5
0!
#6
1!
b0111111010100001 # 
b10100001 & 
b01111110 ' 
#7
0!
#8
1!
b0111110110100001 # 
b10100001 & 
b01111101 ' 
#9
0!
#10
1!
b0111110010100001 # 
b10100001 & 
b01111100 ' 
#11
0!
#12
1!
b0111101110100001 # 
b10100001 & 
b01111011 ' 
#13
0!
#14
1!
b0111101010100001 # 
b10100001 & 
b01111010 ' 
#15
0!
#16
1!
b0111100110100001 # 
b10100001 & 
b01111001 ' 
#17
0!
#18
1!
b0111100010100001 # 
b10100001 & 
b01111000 ' 
#19
0!
#20
1!
b0111011110100001 # 
b10100001 & 
b01110111 ' 
#21
0!
#22
1!
b0111011010100001 # 
b10100001 & 
b01110110 ' 
#23
0!
#24
1!
b0111010110100001 # 
b10100001 & 
b01110101 ' 
#25
0!
#26
1!
b0111010010100001 # 
b10100001 & 
b01110100 ' 
#27
0!
#28
1!
b0111001110100001 # 
b10100001 & 
b01110011 ' 
#29
0!
#30
1!
b0111001010100001 # 
b10100001 & 
b01110010 ' 
#31
0!
#32
1!
b0111000110100001 # 
b10100001 & 
b01110001 ' 
#33
0!
#34
1!
b0111000010100001 # 
b10100001 & 
b01110000 ' 
#35
0!
#36
1!
b0110111110100001 # 
b10100001 & 
b01101111 ' 
#37
0!
#38
1!
b0110111010100001 # 
b10100001 & 
b01101110 ' 
#39
0!
#40
1!
b0110110110100001 # 
b10100001 & 
b01101101 ' 
#41
0!
#42
1!
b0110110010100001 # 
b10100001 & 
b01101100 ' 
#43
0!
#44
1!
b0110101110100001 # 
b10100001 & 
b01101011 ' 
#45
0!
#46
1!
b0110101010100001 # 
b10100001 & 
b01101010 ' 
#47
0!
#48
1!
b0110100110100001 # 
b10100001 & 
b01101001 ' 
#49
0!
#50
1!
b0110100010100001 # 
b10100001 & 
b01101000 ' 
#51
0!
#52
1!
b0110011110100001 # 
b10100001 & 
b01100111 ' 
#53
0!
#54
1!
b0110011010100001 # 
b10100001 & 
b01100110 ' 
#55
0!
#56
1!
b0110010110100001 # 
b10100001 & 
b01100101 ' 
#57
0!
#58
1!
b0110010010100001 # 
b10100001 & 
b01100100 ' 
#59
0!
#60
1!
b0110001110100001 # 
b10100001 & 
b01100011 ' 
#61
0!
#62
1!
b0110001010100001 # 
b10100001 & 
b01100010 ' 
#63
0!
#64
1!
b0110000110100001 # 
b10100001 & 
b01100001 ' 
#65
0!
#66
1!
b0110000010100001 # 
b10100001 & 
b01100000 ' 
#67
0!
#68
1!
b0101111110100001 # 
b10100001 & 
b01011111 ' 
#69
0!
#70
1!
b0101111010100001 # 
b10100001 & 
b01011110 ' 
#71
0!
#72
1!
b0101110110100001 # 
b10100001 & 
b01011101 ' 
#73
0!
#74
1!
b0101110010100001 # 
b10100001 & 
b01011100 ' 
#75
0!
#76
1!
b0101101110100001 # 
b10100001 & 
b01011011 ' 
#77
0!
#78
1!
b0101101010100001 # 
b10100001 & 
b01011010 ' 
#79
0!
#80
1!
b0101100110100001 # 
b10100001 & 
b01011001 ' 
#81
0!
#82
1!
b0101100010100001 # 
b10100001 & 
b01011000 ' 
#83
0!
#84
1!
b0101011110100001 # 
b10100001 & 
b01010111 ' 
#85
0!
#86
1!
b0101011010100001 # 
b10100001 & 
b01010110 ' 
#87
0!
#88
1!
b0101010110100001 # 
b10100001 & 
b01010101 ' 
#89
0!
#90
1!
b0101010010100001 # 
b10100001 & 
b01010100 ' 
#91
0!
#92
1!
b0101001110100001 # 
b10100001 & 
b01010011 ' 
#93
0!
#94
1!
b0101001010100001 # 
b10100001 & 
b01010010 ' 
#95
0!
#96
1!
b0101000110100001 # 
b10100001 & 
b01010001 ' 
#97
0!
#98
1!
b0101000010100001 # 
b10100001 & 
b01010000 ' 
#99
0!
#100
1!
b0100111110100001 # 
b10100001 & 
b01001111 ' 
#101
0!
#102
1!
b0100111010100001 # 
b10100001 & 
b01001110 ' 
#103
0!
#104
1!
b0100110110100001 # 
b10100001 & 
b01001101 ' 
#105
0!
#106
1!
b0100110010100001 # 
b10100001 & 
b01001100 ' 
#107
0!
#108
1!
b0100101110100001 # 
b10100001 & 
b01001011 ' 
#109
0!
#110
1!
b0100101010100001 # 
b10100001 & 
b01001010 ' 
#111
0!
#112
1!
b0100100110100001 # 
b10100001 & 
b01001001 ' 
#113
0!
#114
1!
b0100100010100001 # 
b10100001 & 
b01001000 ' 
#115
0!
#116
1!
b0100011110100001 # 
b10100001 & 
b01000111 ' 
#117
0!
#118
1!
b0100011010100001 # 
b10100001 & 
b01000110 ' 
#119
0!
#120
1!
b0100010110100001 # 
b10100001 & 
b01000101 ' 
#121
0!
#122
1!
b0100010010100001 # 
b10100001 & 
b01000100 ' 
#123
0!
#124
1!
b0100001110100001 # 
b10100001 & 
b01000011 ' 
#125
0!
#126
1!
b0100001010100001 # 
b10100001 & 
b01000010 ' 
#127
0!
#128
1!
b0100000110100001 # 
b10100001 & 
b01000001 ' 
#129
0!
#130
1!
b0100000010100001 # 
b10100001 & 
b01000000 ' 
#131
0!
#132
1!
b0011111110100001 # 
b10100001 & 
b00111111 ' 
#133
0!
#134
1!
b0011111010100001 # 
b10100001 & 
b00111110 ' 
#135
0!
#136
1!
b0011110110100001 # 
b10100001 & 
b00111101 ' 
#137
0!
#138
1!
b0011110010100001 # 
b10100001 & 
b00111100 ' 
#139
0!
#140
1!
b0011101110100001 # 
b10100001 & 
b00111011 ' 
#141
0!
#142
1!
b0011101010100001 # 
b10100001 & 
b00111010 ' 
#143
0!
#144
1!
b0011100110100001 # 
b10100001 & 
b00111001 ' 
#145
0!
#146
1!
b0011100010100001 # 
b10100001 & 
b00111000 ' 
#147
0!
#148
1!
b0011011110100001 # 
b10100001 & 
b00110111 ' 
#149
0!
#150
1!
b0011011010100001 # 
b10100001 & 
b00110110 ' 
#151
0!
#152
1!
b0011010110100001 # 
b10100001 & 
b00110101 ' 
#153
0!
#154
1!
b0011010010100001 # 
b10100001 & 
b00110100 ' 
#155
0!
#156
1!
b0011001110100001 # 
b10100001 & 
b00110011 ' 
#157
0!
#158
1!
b0011001010100001 # 
b10100001 & 
b00110010 ' 
#159
0!
#160
1!
b0011000110100001 # 
b10100001 & 
b00110001 ' 
#161
0!
#162
1!
b0011000010100001 # 
b10100001 & 
b00110000 ' 
#163
0!
#164
1!
b0010111110100001 # 
b10100001 & 
b00101111 ' 
#165
0!
#166
1!
b0010111010100001 # 
b10100001 & 
b00101110 ' 
#167
0!
#168
1!
b0010110110100001 # 
b10100001 & 
b00101101 ' 
#169
0!
#170
1!
b0010110010100001 # 
b10100001 & 
b00101100 ' 
#171
0!
#172
1!
b0010101110100001 # 
b10100001 & 
b00101011 ' 
#173
0!
#174
1!
b0010101010100001 # 
b10100001 & 
b00101010 ' 
#175
0!
#176
1!
b0010100110100001 # 
b10100001 & 
b00101001 ' 
#177
0!
#178
1!
b0010100010100001 # 
b10100001 & 
b00101000 ' 
#179
0!
#180
1!
b0010011110100001 # 
b10100001 & 
b00100111 ' 
#181
0!
#182
1!
b0010011010100001 # 
b10100001 & 
b00100110 ' 
#183
0!
#184
1!
b0010010110100001 # 
b10100001 & 
b00100101 ' 
#185
0!
#186
1!
b0010010010100001 # 
b10100001 & 
b00100100 ' 
#187
0!
#188
1!
b0010001110100001 # 
b10100001 & 
b00100011 ' 
#189
0!
#190
1!
b0010001010100001 # 
b10100001 & 
b00100010 ' 
#191
0!
#192
1!
b0010000110100001 # 
b10100001 & 
b00100001 ' 
#193
0!
#194
1!
b0010000010100001 # 
b10100001 & 
b00100000 ' 
#195
0!
#196
1!
b0001111110100001 # 
b10100001 & 
b00011111 ' 
#197
0!
#198
1!
b0001111010100001 # 
b10100001 & 
b00011110 ' 
#199
0!
#200
1!
b0001110110100001 # 
b10100001 & 
b00011101 ' 
#201
0!
#202
1!
b0001110010100001 # 
b10100001 & 
b00011100 ' 
#203
0!
#204
1!
b0001101110100001 # 
b10100001 & 
b00011011 ' 
#205
0!
#206
1!
b0001101010100001 # 
b10100001 & 
b00011010 ' 
#207
0!
#208
1!
b0001100110100001 # 
b10100001 & 
b00011001 ' 
#209
0!
#210
1!
b0001100010100001 # 
b10100001 & 
b00011000 ' 
#211
0!
#212
1!
b0001011110100001 # 
b10100001 & 
b00010111 ' 
#213
0!
#214
1!
b0001011010100001 # 
b10100001 & 
b00010110 ' 
#215
0!
#216
1!
b0001010110100001 # 
b10100001 & 
b00010101 ' 
#217
0!
#218
1!
b0001010010100001 # 
b10100001 & 
b00010100 ' 
#219
0!
#220
1!
b0001001110100001 # 
b10100001 & 
b00010011 ' 
#221
0!
#222
1!
b0001001010100001 # 
b10100001 & 
b00010010 ' 
#223
0!
#224
1!
b0001000110100001 # 
b10100001 & 
b00010001 ' 
#225
0!
#226
1!
b0001000010100001 # 
b10100001 & 
b00010000 ' 
#227
0!
#228
1!
b0000111110100001 # 
b10100001 & 
b00001111 ' 
#229
0!
#230
1!
b0000111010100001 # 
b10100001 & 
b00001110 ' 
#231
0!
#232
1!
b0000110110100001 # 
b10100001 & 
b00001101 ' 
#233
0!
#234
1!
b0000110010100001 # 
b10100001 & 
b00001100 ' 
#235
0!
#236
1!
b0000101110100001 # 
b10100001 & 
b00001011 ' 
#237
0!
#238
1!
b0000101010100001 # 
b10100001 & 
b00001010 ' 
#239
0!
#240
1!
b0000100110100001 # 
b10100001 & 
b00001001 ' 
#241
0!
#242
1!
b0000100010100001 # 
b10100001 & 
b00001000 ' 
#243
0!
#244
1!
b0000011110100001 # 
b10100001 & 
b00000111 ' 
#245
0!
#246
1!
b0000011010100001 # 
b10100001 & 
b00000110 ' 
#247
0!
#248
1!
b0000010110100001 # 
b10100001 & 
b00000101 ' 
#249
0!
#250
1!
b0000010010100001 # 
b10100001 & 
b00000100 ' 
#251
0!
#252
1!
b0000001110100001 # 
b10100001 & 
b00000011 ' 
#253
0!
#254
1!
b0000001010100001 # 
b10100001 & 
b00000010 ' 
#255
0!
#256
1!
b0000000110100001 # 
b10100001 & 
b00000001 ' 
#257
0!
#258
1!
b0110010010101100 # 
b10101100 & 
b01100100 ' 
1^
#259
0!
#260
1!
b0110001110101100 # 
b10101100 & 
b01100011 ' 
#261
0!
#262
1!
b0110001010101100 # 
b10101100 & 
b01100010 ' 
#263
0!
#264
1!
b0110000110101100 # 
b10101100 & 
b01100001 ' 
#265
0!
#266
1!
b0110000010101100 # 
b10101100 & 
b01100000 ' 
#267
0!
#268
1!
b0101111110101100 # 
b10101100 & 
b01011111 ' 
#269
0!
#270
1!
b0101111010101100 # 
b10101100 & 
b01011110 ' 
#271
0!
#272
1!
b0101110110101100 # 
b10101100 & 
b01011101 ' 
#273
0!
#274
1!
b0101110010101100 # 
b10101100 & 
b01011100 ' 
#275
0!
#276
1!
b0101101110101100 # 
b10101100 & 
b01011011 ' 
#277
0!
#278
1!
b0101101010101100 # 
b10101100 & 
b01011010 ' 
#279
0!
#280
1!
b0101100110101100 # 
b10101100 & 
b01011001 ' 
#281
0!
#282
1!
b0101100010101100 # 
b10101100 & 
b01011000 ' 
#283
0!
#284
1!
b0101011110101100 # 
b10101100 & 
b01010111 ' 
#285
0!
#286
1!
b0101011010101100 # 
b10101100 & 
b01010110 ' 
#287
0!
#288
1!
b0101010110101100 # 
b10101100 & 
b01010101 ' 
#289
0!
#290
1!
b0101010010101100 # 
b10101100 & 
b01010100 ' 
#291
0!
#292
1!
b0101001110101100 # 
b10101100 & 
b01010011 ' 
#293
0!
#294
1!
b0101001010101100 # 
b10101100 & 
b01010010 ' 
#295
0!
#296
1!
b0101000110101100 # 
b10101100 & 
b01010001 ' 
#297
0!
#298
1!
b0101000010101100 # 
b10101100 & 
b01010000 ' 
#299
0!
#300
1!
b0100111110101100 # 
b10101100 & 
b01001111 ' 
#301
0!
#302
1!
b0100111010101100 # 
b10101100 & 
b01001110 ' 
#303
0!
#304
1!
b0100110110101100 # 
b10101100 & 
b01001101 ' 
#305
0!
#306
1!
b0100110010101100 # 
b10101100 & 
b01001100 ' 
#307
0!
#308
1!
b0100101110101100 # 
b10101100 & 
b01001011 ' 
#309
0!
#310
1!
b0100101010101100 # 
b10101100 & 
b01001010 ' 
#311
0!
#312
1!
b0100100110101100 # 
b10101100 & 
b01001001 ' 
#313
0!
#314
1!
b0100100010101100 # 
b10101100 & 
b01001000 ' 
#315
0!
#316
1!
b0100011110101100 # 
b10101100 & 
b01000111 ' 
#317
0!
#318
1!
b0100011010101100 # 
b10101100 & 
b01000110 ' 
#319
0!
#320
1!
b0100010110101100 # 
b10101100 & 
b01000101 ' 
#321
0!
#322
1!
b0100010010101100 # 
b10101100 & 
b01000100 ' 
#323
0!
#324
1!
b0100001110101100 # 
b10101100 & 
b01000011 ' 
#325
0!
#326
1!
b0100001010101100 # 
b10101100 & 
b01000010 ' 
#327
0!
#328
1!
b0100000110101100 # 
b10101100 & 
b01000001 ' 
#329
0!
#330
1!
b0100000010101100 # 
b10101100 & 
b01000000 ' 
#331
0!
#332
1!
b0011111110101100 # 
b10101100 & 
b00111111 ' 
#333
0!
#334
1!
b0011111010101100 # 
b10101100 & 
b00111110 ' 
#335
0!
#336
1!
b0011110110101100 # 
b10101100 & 
b00111101 ' 
#337
0!
#338
1!
b0011110010101100 # 
b10101100 & 
b00111100 ' 
#339
0!
#340
1!
b0011101110101100 # 
b10101100 & 
b00111011 ' 
#341
0!
#342
1!
b0011101010101100 # 
b10101100 & 
b00111010 ' 
#343
0!
#344
1!
b0011100110101100 # 
b10101100 & 
b00111001 ' 
#345
0!
#346
1!
b0011100010101100 # 
b10101100 & 
b00111000 ' 
#347
0!
#348
1!
b0011011110101100 # 
b10101100 & 
b00110111 ' 
#349
0!
#350
1!
b0011011010101100 # 
b10101100 & 
b00110110 ' 
#351
0!
#352
1!
b0011010110101100 # 
b10101100 & 
b00110101 ' 
#353
0!
#354
1!
b0011010010101100 # 
b10101100 & 
b00110100 ' 
#355
0!
#356
1!
b0011001110101100 # 
b10101100 & 
b00110011 ' 
#357
0!
#358
1!
b0011001010101100 # 
b10101100 & 
b00110010 ' 
#359
0!
#360
1!
b0011000110101100 # 
b10101100 & 
b00110001 ' 
#361
0!
#362
1!
b0011000010101100 # 
b10101100 & 
b00110000 ' 
#363
0!
#364
1!
b0010111110101100 # 
b10101100 & 
b00101111 ' 
#365
0!
#366
1!
b0010111010101100 # 
b10101100 & 
b00101110 ' 
#367
0!
#368
1!
b0010110110101100 # 
b10101100 & 
b00101101 ' 
#369
0!
#370
1!
b0010110010101100 # 
b10101100 & 
b00101100 ' 
#371
0!
#372
1!
b0010101110101100 # 
b10101100 & 
b00101011 ' 
#373
0!
#374
1!
b0010101010101100 # 
b10101100 & 
b00101010 ' 
#375
0!
#376
1!
b0010100110101100 # 
b10101100 & 
b00101001 ' 
#377
0!
#378
1!
b0010100010101100 # 
b10101100 & 
b00101000 ' 
#379
0!
#380
1!
b0010011110101100 # 
b10101100 & 
b00100111 ' 
#381
0!
#382
1!
b0010011010101100 # 
b10101100 & 
b00100110 ' 
#383
0!
#384
1!
b0010010110101100 # 
b10101100 & 
b00100101 ' 
#385
0!
#386
1!
b0010010010101100 # 
b10101100 & 
b00100100 ' 
#387
0!
#388
1!
b0010001110101100 # 
b10101100 & 
b00100011 ' 
#389
0!
#390
1!
b0010001010101100 # 
b10101100 & 
b00100010 ' 
#391
0!
#392
1!
b0010000110101100 # 
b10101100 & 
b00100001 ' 
#393
0!
#394
1!
b0010000010101100 # 
b10101100 & 
b00100000 ' 
#395
0!
#396
1!
b0001111110101100 # 
b10101100 & 
b00011111 ' 
#397
0!
#398
1!
b0001111010101100 # 
b10101100 & 
b00011110 ' 
#399
0!
#400
1!
b0001110110101100 # 
b10101100 & 
b00011101 ' 
#401
0!
#402
1!
b0001110010101100 # 
b10101100 & 
b00011100 ' 
#403
0!
#404
1!
b0001101110101100 # 
b10101100 & 
b00011011 ' 
#405
0!
#406
1!
b0001101010101100 # 
b10101100 & 
b00011010 ' 
#407
0!
#408
1!
b0001100110101100 # 
b10101100 & 
b00011001 ' 
#409
0!
#410
1!
b0001100010101100 # 
b10101100 & 
b00011000 ' 
#411
0!
#412
1!
b0001011110101100 # 
b10101100 & 
b00010111 ' 
#413
0!
#414
1!
b0001011010101100 # 
b10101100 & 
b00010110 ' 
#415
0!
#416
1!
b0001010110101100 # 
b10101100 & 
b00010101 ' 
#417
0!
#418
1!
b0001010010101100 # 
b10101100 & 
b00010100 ' 
#419
0!
#420
1!
b0001001110101100 # 
b10101100 & 
b00010011 ' 
#421
0!
#422
1!
b0001001010101100 # 
b10101100 & 
b00010010 ' 
#423
0!
#424
1!
b0001000110101100 # 
b10101100 & 
b00010001 ' 
#425
0!
#426
1!
b0001000010101100 # 
b10101100 & 
b00010000 ' 
#427
0!
#428
1!
b0000111110101100 # 
b10101100 & 
b00001111 ' 
#429
0!
#430
1!
b0000111010101100 # 
b10101100 & 
b00001110 ' 
#431
0!
#432
1!
b0000110110101100 # 
b10101100 & 
b00001101 ' 
#433
0!
#434
1!
b0000110010101100 # 
b10101100 & 
b00001100 ' 
#435
0!
#436
1!
b0000101110101100 # 
b10101100 & 
b00001011 ' 
#437
0!
#438
1!
b0000101010101100 # 
b10101100 & 
b00001010 ' 
#439
0!
#440
1!
b0000100110101100 # 
b10101100 & 
b00001001 ' 
#441
0!
#442
1!
b0000100010101100 # 
b10101100 & 
b00001000 ' 
#443
0!
#444
1!
b0000011110101100 # 
b10101100 & 
b00000111 ' 
#445
0!
#446
1!
b0000011010101100 # 
b10101100 & 
b00000110 ' 
#447
0!
#448
1!
b0000010110101100 # 
b10101100 & 
b00000101 ' 
#449
0!
#450
1!
b0000010010101100 # 
b10101100 & 
b00000100 ' 
#451
0!
#452
1!
b0000001110101100 # 
b10101100 & 
b00000011 ' 
#453
0!
#454
1!
b0000001010101100 # 
b10101100 & 
b00000010 ' 
#455
0!
#456
1!
b0000000110101100 # 
b10101100 & 
b00000001 ' 
#457
0!
#458
1!
b1111101000001001 # 
b00001001 & 
b11111010 ' 
#459
0!
#460
1!
b1111100100001001 # 
b00001001 & 
b11111001 ' 
#461
0!
#462
1!
b1111100000001001 # 
b00001001 & 
b11111000 ' 
#463
0!
#464
1!
b1111011100001001 # 
b00001001 & 
b11110111 ' 
#465
0!
#466
1!
b1111011000001001 # 
b00001001 & 
b11110110 ' 
#467
0!
#468
1!
b1111010100001001 # 
b00001001 & 
b11110101 ' 
#469
0!
#470
1!
b1111010000001001 # 
b00001001 & 
b11110100 ' 
#471
0!
#472
1!
b1111001100001001 # 
b00001001 & 
b11110011 ' 
#473
0!
#474
1!
b1111001000001001 # 
b00001001 & 
b11110010 ' 
#475
0!
#476
1!
b1111000100001001 # 
b00001001 & 
b11110001 ' 
#477
0!
#478
1!
b1111000000001001 # 
b00001001 & 
b11110000 ' 
#479
0!
#480
1!
b1110111100001001 # 
b00001001 & 
b11101111 ' 
#481
0!
#482
1!
b1110111000001001 # 
b00001001 & 
b11101110 ' 
#483
0!
#484
1!
b1110110100001001 # 
b00001001 & 
b11101101 ' 
#485
0!
#486
1!
b1110110000001001 # 
b00001001 & 
b11101100 ' 
#487
0!
#488
1!
b1110101100001001 # 
b00001001 & 
b11101011 ' 
#489
0!
#490
1!
b1110101000001001 # 
b00001001 & 
b11101010 ' 
#491
0!
#492
1!
b1110100100001001 # 
b00001001 & 
b11101001 ' 
#493
0!
#494
1!
b1110100000001001 # 
b00001001 & 
b11101000 ' 
#495
0!
#496
1!
b1110011100001001 # 
b00001001 & 
b11100111 ' 
#497
0!
#498
1!
b1110011000001001 # 
b00001001 & 
b11100110 ' 
#499
0!
#500
1!
b1110010100001001 # 
b00001001 & 
b11100101 ' 
#501
0!
#502
1!
b1110010000001001 # 
b00001001 & 
b11100100 ' 
#503
0!
#504
1!
b1110001100001001 # 
b00001001 & 
b11100011 ' 
#505
0!
#506
1!
b1110001000001001 # 
b00001001 & 
b11100010 ' 
#507
0!
#508
1!
b1110000100001001 # 
b00001001 & 
b11100001 ' 
