demos/max10/demo/demo.vcd
$version la2vcd 0.1 $end
$date Sat Sep 15 17:11:11 2018
 $end
$timescale 41667ps $end
$scope module CAPTURE $end
$var wire 1 ! clk $end
$var wire 1 ^ triggered $end
$var wire 8 & capbyte0 $end
$var wire 8 ' capbyte1 $end
$upscope $end
$enddefinitions $end
$dumpvars
0!
0^
bx &
bx '
 $end
#0
1!
b01001011 & 
b00010000 ' 
#1
0!
#2
1!
b01001011 & 
b00010000 ' 
#3
0!
#4
1!
b01001011 & 
b00101000 ' 
#5
0!
#6
1!
b01001011 & 
b01000100 ' 
#7
0!
#8
1!
b01001011 & 
b10000010 ' 
#9
0!
#10
1!
b01001011 & 
b00000000 ' 
#11
0!
#12
1!
b01000001 & 
b01111110 ' 
#13
0!
#14
1!
b01000001 & 
b10001000 ' 
#15
0!
#16
1!
#17
0!
#18
1!
#19
0!
#20
1!
b01000001 & 
b01111110 ' 
#21
0!
#22
1!
b01000001 & 
b00000000 ' 
#23
0!
#24
1!
b01000100 & 
b11111110 ' 
#25
0!
#26
1!
b01000100 & 
b10000010 ' 
#27
0!
#28
1!
#29
0!
#30
1!
b01000100 & 
b01000100 ' 
#31
0!
#32
1!
b01000100 & 
b00111000 ' 
#33
0!
#34
1!
b01000100 & 
b00000000 ' 
#35
0!
#36
1!
b01000001 & 
b01111110 ' 
#37
0!
#38
1!
b01000001 & 
b10001000 ' 
#39
0!
#40
1!
#41
0!
#42
1!
#43
0!
#44
1!
b01000001 & 
b01111110 ' 
#45
0!
#46
1!
b01000001 & 
b00000000 ' 
#47
0!
#48
1!
b01011001 & 
b11000000 ' 
#49
0!
#50
1!
b01011001 & 
b00100000 ' 
#51
0!
#52
1!
b01011001 & 
b00011110 ' 
#53
0!
#54
1!
b01011001 & 
b00100000 ' 
#55
0!
#56
1!
b01011001 & 
b11000000 ' 
#57
0!
#58
1!
b01011001 & 
b00000000 ' 
#59
0!
#60
1!
b01001000 & 
b11111110 ' 
1^
#61
0!
#62
1!
b01001000 & 
b00010000 ' 
#63
0!
#64
1!
#65
0!
#66
1!
#67
0!
#68
1!
b01001000 & 
b11111110 ' 
#69
0!
#70
1!
b01001000 & 
b00000000 ' 
#71
0!
#72
1!
b01000001 & 
b01111110 ' 
#73
0!
#74
1!
b01000001 & 
b10001000 ' 
#75
0!
#76
1!
#77
0!
#78
1!
#79
0!
#80
1!
b01000001 & 
b01111110 ' 
#81
0!
#82
1!
b01000001 & 
b00000000 ' 
#83
0!
#84
1!
b01000011 & 
b01111100 ' 
#85
0!
#86
1!
b01000011 & 
b10000010 ' 
#87
0!
#88
1!
#89
0!
#90
1!
#91
0!
#92
1!
b01000011 & 
b01000100 ' 
#93
0!
#94
1!
b01000011 & 
b00000000 ' 
#95
0!
#96
1!
b01001011 & 
b11111110 ' 
#97
0!
#98
1!
b01001011 & 
b00010000 ' 
#99
0!
#100
1!
b01001011 & 
b00101000 ' 
#101
0!
#102
1!
b01001011 & 
b01000100 ' 
#103
0!
#104
1!
b01001011 & 
b10000010 ' 
#105
0!
#106
1!
b01001011 & 
b00000000 ' 
#107
0!
#108
1!
b01000001 & 
b01111110 ' 
#109
0!
#110
1!
b01000001 & 
b10001000 ' 
#111
0!
#112
1!
#113
0!
#114
1!
#115
0!
#116
1!
b01000001 & 
b01111110 ' 
#117
0!
#118
1!
b01000001 & 
b00000000 ' 
#119
0!
#120
1!
b01000100 & 
b11111110 ' 
#121
0!
#122
1!
b01000100 & 
b10000010 ' 
#123
0!
#124
1!
#125
0!
#126
1!
b01000100 & 
b01000100 ' 
#127
0!
#128
1!
b01000100 & 
b00111000 ' 
#129
0!
#130
1!
b01000100 & 
b00000000 ' 
#131
0!
#132
1!
b01000001 & 
b01111110 ' 
#133
0!
#134
1!
b01000001 & 
b10001000 ' 
#135
0!
#136
1!
#137
0!
#138
1!
#139
0!
#140
1!
b01000001 & 
b01111110 ' 
#141
0!
#142
1!
b01000001 & 
b00000000 ' 
#143
0!
#144
1!
b01011001 & 
b11000000 ' 
#145
0!
#146
1!
b01011001 & 
b00100000 ' 
#147
0!
#148
1!
b01011001 & 
b00011110 ' 
#149
0!
#150
1!
b01011001 & 
b00100000 ' 
#151
0!
#152
1!
b01011001 & 
b11000000 ' 
#153
0!
#154
1!
b01011001 & 
b00000000 ' 
#155
0!
#156
1!
b01001000 & 
b11111110 ' 
#157
0!
#158
1!
b01001000 & 
b00010000 ' 
#159
0!
#160
1!
#161
0!
#162
1!
#163
0!
#164
1!
b01001000 & 
b11111110 ' 
#165
0!
#166
1!
b01001000 & 
b00000000 ' 
#167
0!
#168
1!
b01000001 & 
b01111110 ' 
#169
0!
#170
1!
b01000001 & 
b10001000 ' 
#171
0!
#172
1!
#173
0!
#174
1!
#175
0!
#176
1!
b01000001 & 
b01111110 ' 
#177
0!
#178
1!
b01000001 & 
b00000000 ' 
#179
0!
#180
1!
b01000011 & 
b01111100 ' 
#181
0!
#182
1!
b01000011 & 
b10000010 ' 
#183
0!
#184
1!
#185
0!
#186
1!
#187
0!
#188
1!
b01000011 & 
b01000100 ' 
#189
0!
#190
1!
b01000011 & 
b00000000 ' 
#191
0!
#192
1!
b01001011 & 
b11111110 ' 
#193
0!
#194
1!
b01001011 & 
b00010000 ' 
#195
0!
#196
1!
b01001011 & 
b00101000 ' 
#197
0!
#198
1!
b01001011 & 
b01000100 ' 
#199
0!
#200
1!
b01001011 & 
b10000010 ' 
#201
0!
#202
1!
b01001011 & 
b00000000 ' 
#203
0!
#204
1!
b01000001 & 
b01111110 ' 
#205
0!
#206
1!
b01000001 & 
b10001000 ' 
#207
0!
#208
1!
#209
0!
#210
1!
#211
0!
#212
1!
b01000001 & 
b01111110 ' 
#213
0!
#214
1!
b01000001 & 
b00000000 ' 
#215
0!
#216
1!
b01000100 & 
b11111110 ' 
#217
0!
#218
1!
b01000100 & 
b10000010 ' 
#219
0!
#220
1!
#221
0!
#222
1!
b01000100 & 
b01000100 ' 
#223
0!
#224
1!
b01000100 & 
b00111000 ' 
#225
0!
#226
1!
b01000100 & 
b00000000 ' 
#227
0!
#228
1!
b01000001 & 
b01111110 ' 
#229
0!
#230
1!
b01000001 & 
b10001000 ' 
#231
0!
#232
1!
#233
0!
#234
1!
#235
0!
#236
1!
b01000001 & 
b01111110 ' 
#237
0!
#238
1!
b01000001 & 
b00000000 ' 
#239
0!
#240
1!
b01011001 & 
b11000000 ' 
#241
0!
#242
1!
b01011001 & 
b00100000 ' 
#243
0!
#244
1!
b01011001 & 
b00011110 ' 
#245
0!
#246
1!
b01011001 & 
b00100000 ' 
#247
0!
#248
1!
b01011001 & 
b11000000 ' 
#249
0!
#250
1!
b01011001 & 
b00000000 ' 
#251
0!
#252
1!
b01001000 & 
b11111110 ' 
#253
0!
#254
1!
b01001000 & 
b00010000 ' 
#255
0!
#256
1!
#257
0!
#258
1!
#259
0!
#260
1!
b01001000 & 
b11111110 ' 
#261
0!
#262
1!
b01001000 & 
b00000000 ' 
#263
0!
#264
1!
b01000001 & 
b01111110 ' 
#265
0!
#266
1!
b01000001 & 
b10001000 ' 
#267
0!
#268
1!
#269
0!
#270
1!
#271
0!
#272
1!
b01000001 & 
b01111110 ' 
#273
0!
#274
1!
b01000001 & 
b00000000 ' 
#275
0!
#276
1!
b01000011 & 
b01111100 ' 
#277
0!
#278
1!
b01000011 & 
b10000010 ' 
#279
0!
#280
1!
#281
0!
#282
1!
#283
0!
#284
1!
b01000011 & 
b01000100 ' 
#285
0!
#286
1!
b01000011 & 
b00000000 ' 
#287
0!
#288
1!
b01001011 & 
b11111110 ' 
#289
0!
#290
1!
b01001011 & 
b00010000 ' 
#291
0!
#292
1!
b01001011 & 
b00101000 ' 
#293
0!
#294
1!
b01001011 & 
b01000100 ' 
#295
0!
#296
1!
b01001011 & 
b10000010 ' 
#297
0!
#298
1!
b01001011 & 
b00000000 ' 
#299
0!
#300
1!
b01000001 & 
b01111110 ' 
#301
0!
#302
1!
b01000001 & 
b10001000 ' 
#303
0!
#304
1!
#305
0!
#306
1!
#307
0!
#308
1!
b01000001 & 
b01111110 ' 
#309
0!
#310
1!
b01000001 & 
b00000000 ' 
#311
0!
#312
1!
b01000100 & 
b11111110 ' 
#313
0!
#314
1!
b01000100 & 
b10000010 ' 
#315
0!
#316
1!
#317
0!
#318
1!
b01000100 & 
b01000100 ' 
#319
0!
#320
1!
b01000100 & 
b00111000 ' 
#321
0!
#322
1!
b01000100 & 
b00000000 ' 
#323
0!
#324
1!
b01000001 & 
b01111110 ' 
#325
0!
#326
1!
b01000001 & 
b10001000 ' 
#327
0!
#328
1!
#329
0!
#330
1!
#331
0!
#332
1!
b01000001 & 
b01111110 ' 
#333
0!
#334
1!
b01000001 & 
b00000000 ' 
#335
0!
#336
1!
b01011001 & 
b11000000 ' 
#337
0!
#338
1!
b01011001 & 
b00100000 ' 
#339
0!
#340
1!
b01011001 & 
b00011110 ' 
#341
0!
#342
1!
b01011001 & 
b00100000 ' 
#343
0!
#344
1!
b01011001 & 
b11000000 ' 
#345
0!
#346
1!
b01011001 & 
b00000000 ' 
#347
0!
#348
1!
b01001000 & 
b11111110 ' 
#349
0!
#350
1!
b01001000 & 
b00010000 ' 
#351
0!
#352
1!
#353
0!
#354
1!
#355
0!
#356
1!
b01001000 & 
b11111110 ' 
#357
0!
#358
1!
b01001000 & 
b00000000 ' 
#359
0!
#360
1!
b01000001 & 
b01111110 ' 
#361
0!
#362
1!
b01000001 & 
b10001000 ' 
#363
0!
#364
1!
#365
0!
#366
1!
#367
0!
#368
1!
b01000001 & 
b01111110 ' 
#369
0!
#370
1!
b01000001 & 
b00000000 ' 
#371
0!
#372
1!
b01000011 & 
b01111100 ' 
#373
0!
#374
1!
b01000011 & 
b10000010 ' 
#375
0!
#376
1!
#377
0!
#378
1!
#379
0!
#380
1!
b01000011 & 
b01000100 ' 
#381
0!
#382
1!
b01000011 & 
b00000000 ' 
#383
0!
#384
1!
b01001011 & 
b11111110 ' 
#385
0!
#386
1!
b01001011 & 
b00010000 ' 
#387
0!
#388
1!
b01001011 & 
b00101000 ' 
